/home/axcap/Documents/4121/oblig1/src/main/java/mengde/Oblig2.java
/home/axcap/Documents/4121/oblig1/src/main/java/mengde/Oblig2TestC.java
/home/axcap/Documents/4121/oblig1/src/main/java/mengde/Oblig2TestA.java
/home/axcap/Documents/4121/oblig1/src/main/java/mengde/Oblig2TestB.java
/home/axcap/Documents/4121/oblig1/src/main/java/mengde/Mengde.java
