\relax 
\providecommand\hyper@newdestlabel[2]{}
\providecommand\HyperFirstAtBeginDocument{\AtBeginDocument}
\HyperFirstAtBeginDocument{\ifx\hyper@anchor\@undefined
\global\let\oldcontentsline\contentsline
\gdef\contentsline#1#2#3#4{\oldcontentsline{#1}{#2}{#3}}
\global\let\oldnewlabel\newlabel
\gdef\newlabel#1#2{\newlabelxx{#1}#2}
\gdef\newlabelxx#1#2#3#4#5#6{\oldnewlabel{#1}{{#2}{#3}}}
\AtEndDocument{\ifx\hyper@anchor\@undefined
\let\contentsline\oldcontentsline
\let\newlabel\oldnewlabel
\fi}
\fi}
\global\let\hyper@last\relax 
\gdef\HyperFirstAtBeginDocument#1{#1}
\providecommand\HyField@AuxAddToFields[1]{}
\providecommand\HyField@AuxAddToCoFields[2]{}
\@writefile{toc}{\contentsline {section}{\numberline {1}Fundamental Concepts in Testing}{1}{section.1}}
\@writefile{toc}{\contentsline {subsection}{\numberline {1.1}What can SW system failures lead to?}{1}{subsection.1.1}}
\@writefile{toc}{\contentsline {subsection}{\numberline {1.2}What causes software defects?}{1}{subsection.1.2}}
\@writefile{toc}{\contentsline {subsection}{\numberline {1.3}What’s the relationship between failures and defects?}{1}{subsection.1.3}}
\@writefile{toc}{\contentsline {subsection}{\numberline {1.4}What is the definition of testing?}{1}{subsection.1.4}}
\@writefile{toc}{\contentsline {subsection}{\numberline {1.5}What is the role of testing?}{1}{subsection.1.5}}
\@writefile{toc}{\contentsline {subsection}{\numberline {1.6}Amount of testing depends on what?}{1}{subsection.1.6}}
\@writefile{toc}{\contentsline {subsection}{\numberline {1.7}What are the 7 principles of testing?}{1}{subsection.1.7}}
\@writefile{toc}{\contentsline {subsection}{\numberline {1.8}What’s the 5 fundamental test activities?}{2}{subsection.1.8}}
\@writefile{toc}{\contentsline {subsection}{\numberline {1.9}What kind of independence test levels do we have?}{2}{subsection.1.9}}
\@writefile{toc}{\contentsline {section}{\numberline {2}Testing Throughout the software life cycle}{2}{section.2}}
\@writefile{toc}{\contentsline {subsection}{\numberline {2.1}What is the sequential development model?}{2}{subsection.2.1}}
\@writefile{toc}{\contentsline {subsection}{\numberline {2.2}What is the iterative incremental development model}{2}{subsection.2.2}}
\@writefile{toc}{\contentsline {subsection}{\numberline {2.3}How does testing work in life cycle models?}{2}{subsection.2.3}}
\@writefile{toc}{\contentsline {subsection}{\numberline {2.4}What are the different levels of testing?}{3}{subsection.2.4}}
\@writefile{toc}{\contentsline {subsection}{\numberline {2.5}What’s acceptance testing?}{3}{subsection.2.5}}
\@writefile{toc}{\contentsline {subsection}{\numberline {2.6}What’s system testing?}{3}{subsection.2.6}}
\@writefile{toc}{\contentsline {subsection}{\numberline {2.7}What is integration testing?}{3}{subsection.2.7}}
\@writefile{toc}{\contentsline {subsection}{\numberline {2.8}What’s component testing?}{3}{subsection.2.8}}
\@writefile{toc}{\contentsline {subsection}{\numberline {2.9}What test types do we have?}{3}{subsection.2.9}}
\@writefile{toc}{\contentsline {subsection}{\numberline {2.10}What is functional testing?}{3}{subsection.2.10}}
\@writefile{toc}{\contentsline {subsection}{\numberline {2.11}What is non functional testing?}{3}{subsection.2.11}}
\@writefile{toc}{\contentsline {subsection}{\numberline {2.12}What is structural Testing?}{3}{subsection.2.12}}
\@writefile{toc}{\contentsline {subsection}{\numberline {2.13}What is maintenance testing?}{4}{subsection.2.13}}
\@writefile{toc}{\contentsline {section}{\numberline {3}Static Techniques}{4}{section.3}}
\@writefile{toc}{\contentsline {subsection}{\numberline {3.1}What is the difference between dynamic and static testing?}{4}{subsection.3.1}}
\@writefile{toc}{\contentsline {subsection}{\numberline {3.2}What are reviews, and why do we do reviews?}{4}{subsection.3.2}}
\@writefile{toc}{\contentsline {subsection}{\numberline {3.3}What types of reviews do we have? And what are the differences?}{4}{subsection.3.3}}
\@writefile{toc}{\contentsline {subsection}{\numberline {3.4}What are the phases of a formal review?}{4}{subsection.3.4}}
\@writefile{toc}{\contentsline {subsection}{\numberline {3.5}What are the roles and responsibilies in a review?}{4}{subsection.3.5}}
\@writefile{toc}{\contentsline {subsection}{\numberline {3.6}What are the different types of reviews?}{5}{subsection.3.6}}
\@writefile{toc}{\contentsline {subsection}{\numberline {3.7}What are the success factors for reviews?}{5}{subsection.3.7}}
\@writefile{toc}{\contentsline {subsection}{\numberline {3.8}What are the objectives of static analysis?}{5}{subsection.3.8}}
\@writefile{toc}{\contentsline {section}{\numberline {4}Test Design Techniques}{5}{section.4}}
\@writefile{toc}{\contentsline {subsection}{\numberline {4.1}What is a test condition?}{5}{subsection.4.1}}
\@writefile{toc}{\contentsline {subsection}{\numberline {4.2}What does a test case consist of?}{5}{subsection.4.2}}
\@writefile{toc}{\contentsline {subsection}{\numberline {4.3}What should expected result include?}{5}{subsection.4.3}}
\@writefile{toc}{\contentsline {subsection}{\numberline {4.4}How are test implementation of test cases done?}{5}{subsection.4.4}}
\@writefile{toc}{\contentsline {subsection}{\numberline {4.5}What does test execution schedule define?}{6}{subsection.4.5}}
\@writefile{toc}{\contentsline {subsection}{\numberline {4.6}Recall the purpose of both black-box testing and white-box testing.\\ Give example of techniques for each type of technique.}{6}{subsection.4.6}}
\@writefile{toc}{\contentsline {subsection}{\numberline {4.7} Explain the characteristics, differences and cases in which to use\\ black-box, white-box and experience based testing techniques}{6}{subsection.4.7}}
\@writefile{toc}{\contentsline {subsection}{\numberline {4.8}What is equivalence partitioning?}{6}{subsection.4.8}}
\@writefile{toc}{\contentsline {subsection}{\numberline {4.9}What is boundary value analysis?}{6}{subsection.4.9}}
\@writefile{toc}{\contentsline {subsection}{\numberline {4.10}What is decision table testing?}{6}{subsection.4.10}}
\@writefile{toc}{\contentsline {subsection}{\numberline {4.11}What is state transition testing?}{6}{subsection.4.11}}
\@writefile{toc}{\contentsline {subsection}{\numberline {4.12}What is use case testing}{6}{subsection.4.12}}
\@writefile{toc}{\contentsline {subsection}{\numberline {4.13}What structures can be tested in white box?}{7}{subsection.4.13}}
\@writefile{toc}{\contentsline {subsection}{\numberline {4.14}What is statement testing?}{7}{subsection.4.14}}
\@writefile{toc}{\contentsline {subsection}{\numberline {4.15}What is decision testing?}{7}{subsection.4.15}}
\@writefile{toc}{\contentsline {subsection}{\numberline {4.16}What is experience based testing?}{7}{subsection.4.16}}
\@writefile{toc}{\contentsline {subsection}{\numberline {4.17}Choosing test techniques}{7}{subsection.4.17}}
\@writefile{toc}{\contentsline {section}{\numberline {5}Test Mangement}{7}{section.5}}
\@writefile{toc}{\contentsline {subsection}{\numberline {5.1}What are the tasks of the test leader?}{7}{subsection.5.1}}
\@writefile{toc}{\contentsline {subsection}{\numberline {5.2}What are the tasks of the tester?}{8}{subsection.5.2}}
\@writefile{toc}{\contentsline {subsection}{\numberline {5.3}What is test planning?}{8}{subsection.5.3}}
\@writefile{toc}{\contentsline {subsection}{\numberline {5.4}What is the entry criteria and what does it consist of?}{8}{subsection.5.4}}
\@writefile{toc}{\contentsline {subsection}{\numberline {5.5}What is the exit criteria and what doe sit consist of?}{8}{subsection.5.5}}
\@writefile{toc}{\contentsline {subsection}{\numberline {5.6}What is test estimation?}{8}{subsection.5.6}}
\@writefile{toc}{\contentsline {subsection}{\numberline {5.7}What test approaches do we have?}{8}{subsection.5.7}}
\@writefile{toc}{\contentsline {subsection}{\numberline {5.8}What is test progress monitoring?}{8}{subsection.5.8}}
\@writefile{toc}{\contentsline {subsection}{\numberline {5.9}What is test reporting?}{8}{subsection.5.9}}
\@writefile{toc}{\contentsline {subsection}{\numberline {5.10}What is test control?}{9}{subsection.5.10}}
\@writefile{toc}{\contentsline {subsection}{\numberline {5.11}What is configuration management?}{9}{subsection.5.11}}
\@writefile{toc}{\contentsline {subsection}{\numberline {5.12}What is risk, and how do we determine the level of risk?}{9}{subsection.5.12}}
\@writefile{toc}{\contentsline {subsection}{\numberline {5.13}What is incident management?}{9}{subsection.5.13}}
\@writefile{toc}{\contentsline {subsection}{\numberline {5.14}What is project risks?}{9}{subsection.5.14}}
\@writefile{toc}{\contentsline {subsection}{\numberline {5.15}What is product risk?}{9}{subsection.5.15}}
\@writefile{toc}{\contentsline {section}{\numberline {6}TOOLS SUPPORT FOR TESTING}{9}{section.6}}
\@writefile{toc}{\contentsline {subsection}{\numberline {6.1}What types of test tools do we have?}{9}{subsection.6.1}}
\@writefile{toc}{\contentsline {subsection}{\numberline {6.2}Why do we use test tools?}{9}{subsection.6.2}}
\@writefile{toc}{\contentsline {subsection}{\numberline {6.3}What are requirement management tools?}{9}{subsection.6.3}}
\@writefile{toc}{\contentsline {subsection}{\numberline {6.4}What are incidient management tools?}{10}{subsection.6.4}}
\@writefile{toc}{\contentsline {subsection}{\numberline {6.5}What are configuration management tools?}{10}{subsection.6.5}}
\@writefile{toc}{\contentsline {subsection}{\numberline {6.6}How do we introduce a test tool into an organization}{10}{subsection.6.6}}
\@writefile{toc}{\contentsline {section}{\numberline {7}HCI BROR}{10}{section.7}}
\@writefile{toc}{\contentsline {subsection}{\numberline {7.1}What is HCI?}{10}{subsection.7.1}}
\@writefile{toc}{\contentsline {subsection}{\numberline {7.2}What is the purpose of HCI?}{10}{subsection.7.2}}
\@writefile{toc}{\contentsline {subsection}{\numberline {7.3}What does the framework of HCI consist of?}{10}{subsection.7.3}}
\@writefile{toc}{\contentsline {subsection}{\numberline {7.4}What is Interface Standard?}{10}{subsection.7.4}}
\@writefile{toc}{\contentsline {subsection}{\numberline {7.5}What is Usability?}{11}{subsection.7.5}}
\@writefile{toc}{\contentsline {subsection}{\numberline {7.6}What is interface dynamics?}{11}{subsection.7.6}}
\@writefile{toc}{\contentsline {subsection}{\numberline {7.7}What is aesthetics?}{11}{subsection.7.7}}
\@writefile{toc}{\contentsline {subsection}{\numberline {7.8}What is user centric design process?}{11}{subsection.7.8}}
\@writefile{toc}{\contentsline {subsection}{\numberline {7.9}How do we observe users?}{11}{subsection.7.9}}
\@writefile{toc}{\contentsline {subsection}{\numberline {7.10}What are personas?}{11}{subsection.7.10}}
\@writefile{toc}{\contentsline {subsection}{\numberline {7.11}What are prototypes}{12}{subsection.7.11}}
\@writefile{toc}{\contentsline {subsection}{\numberline {7.12}What type of prototypes do we have}{12}{subsection.7.12}}
\@writefile{toc}{\contentsline {subsection}{\numberline {7.13}What are evaluate concepts?}{12}{subsection.7.13}}
\@writefile{toc}{\contentsline {subsection}{\numberline {7.14}What are the purposes of guidelines?}{12}{subsection.7.14}}
\@writefile{toc}{\contentsline {subsection}{\numberline {7.15}What are system messages}{12}{subsection.7.15}}
\@writefile{toc}{\contentsline {section}{\numberline {8}Accessibility Testing}{12}{section.8}}
\@writefile{toc}{\contentsline {subsection}{\numberline {8.1}What is disability?}{12}{subsection.8.1}}
\@writefile{toc}{\contentsline {subsection}{\numberline {8.2}What is usability?}{12}{subsection.8.2}}
\@writefile{toc}{\contentsline {subsection}{\numberline {8.3}What is accessbility?}{12}{subsection.8.3}}
\@writefile{toc}{\contentsline {subsection}{\numberline {8.4}What are barriers in accessibility, and how are they ranged?}{12}{subsection.8.4}}
\@writefile{toc}{\contentsline {subsection}{\numberline {8.5}Mention 5 personas of accessability study}{13}{subsection.8.5}}
\@writefile{toc}{\contentsline {subsection}{\numberline {8.6}What is accessible design and its 7 points?}{13}{subsection.8.6}}
\@writefile{toc}{\contentsline {subsection}{\numberline {8.7}What does WCAG stand for, and what is it?}{13}{subsection.8.7}}
\@writefile{toc}{\contentsline {subsection}{\numberline {8.8}What is its 4 principles?}{13}{subsection.8.8}}
\@writefile{toc}{\contentsline {subsection}{\numberline {8.9}Mention some assistive technologies}{13}{subsection.8.9}}
\@writefile{toc}{\contentsline {section}{\numberline {9}Exploratory Testing}{13}{section.9}}
\@writefile{toc}{\contentsline {subsection}{\numberline {9.1}What’s Kaners definiton of a computer program?}{13}{subsection.9.1}}
\@writefile{toc}{\contentsline {subsection}{\numberline {9.2}What is the alternative definition of quality?}{14}{subsection.9.2}}
\@writefile{toc}{\contentsline {subsection}{\numberline {9.3}What is the difference between testing and checking?}{14}{subsection.9.3}}
\@writefile{toc}{\contentsline {subsection}{\numberline {9.4}How do we test the customers expectations?}{14}{subsection.9.4}}
\@writefile{toc}{\contentsline {subsection}{\numberline {9.5}How do we build quality?}{14}{subsection.9.5}}
\@writefile{toc}{\contentsline {subsection}{\numberline {9.6}Mention some context dependent testing}{14}{subsection.9.6}}
\@writefile{toc}{\contentsline {subsection}{\numberline {9.7}What heuristic is????}{14}{subsection.9.7}}
\@writefile{toc}{\contentsline {subsection}{\numberline {9.8}Mention some heuristics and their triggers}{14}{subsection.9.8}}
\@writefile{toc}{\contentsline {subsection}{\numberline {9.9}What is the mission of testing}{14}{subsection.9.9}}
\@writefile{toc}{\contentsline {subsection}{\numberline {9.10}What will testers explore}{15}{subsection.9.10}}
\@writefile{toc}{\contentsline {subsection}{\numberline {9.11}What are mental models}{15}{subsection.9.11}}
\@writefile{toc}{\contentsline {section}{\numberline {10}Test Automation and Test Automation Frameworks}{15}{section.10}}
\@writefile{toc}{\contentsline {subsection}{\numberline {10.1}What’s Test Automation?}{15}{subsection.10.1}}
\@writefile{toc}{\contentsline {subsection}{\numberline {10.2}What interfaces for automated tests do we have?}{15}{subsection.10.2}}
\@writefile{toc}{\contentsline {subsection}{\numberline {10.3}What are the advantages and limitations of test automation?}{15}{subsection.10.3}}
\@writefile{toc}{\contentsline {subsection}{\numberline {10.4}What are MAJOR KEYS for test automation?}{15}{subsection.10.4}}
\@writefile{toc}{\contentsline {subsection}{\numberline {10.5}What approaches can we use when creating automated tests?}{15}{subsection.10.5}}
\@writefile{toc}{\contentsline {subsection}{\numberline {10.6}What is the capture replay approach?}{15}{subsection.10.6}}
\@writefile{toc}{\contentsline {subsection}{\numberline {10.7}What is the data driven approach?}{15}{subsection.10.7}}
\@writefile{toc}{\contentsline {subsection}{\numberline {10.8}What is the keyword driven approach?}{15}{subsection.10.8}}
\@writefile{toc}{\contentsline {subsection}{\numberline {10.9}What is the test generation layer?}{15}{subsection.10.9}}
\@writefile{toc}{\contentsline {subsection}{\numberline {10.10}What is the test definition layer?}{15}{subsection.10.10}}
\@writefile{toc}{\contentsline {subsection}{\numberline {10.11}What is the test execution layer?}{15}{subsection.10.11}}
\@writefile{toc}{\contentsline {subsection}{\numberline {10.12}What is the test adaption layer?}{15}{subsection.10.12}}
\@writefile{toc}{\contentsline {subsection}{\numberline {10.13}How do we automate manual tests? (transition from manual to auto)}{15}{subsection.10.13}}
\@writefile{toc}{\contentsline {section}{\numberline {11}MOBILE SOFTWARE TESTING}{15}{section.11}}
\@writefile{toc}{\contentsline {subsection}{\numberline {11.1}Mention some of the mobile device categories we have}{15}{subsection.11.1}}
\@writefile{toc}{\contentsline {subsection}{\numberline {11.2}What are the difference we should think about when it comes to tablet/phone sepcific categories?}{15}{subsection.11.2}}
\@writefile{toc}{\contentsline {subsection}{\numberline {11.3}What are mobile phone tasks?}{15}{subsection.11.3}}
\@writefile{toc}{\contentsline {subsection}{\numberline {11.4}What are tabletes task?}{15}{subsection.11.4}}
\@writefile{toc}{\contentsline {subsection}{\numberline {11.5}What are typical behavior for mobile phone users?}{16}{subsection.11.5}}
\@writefile{toc}{\contentsline {subsection}{\numberline {11.6}What are typical behavior for tablet users?}{16}{subsection.11.6}}
\@writefile{toc}{\contentsline {subsection}{\numberline {11.7}Mention some design issues for mobile devices}{16}{subsection.11.7}}
\@writefile{toc}{\contentsline {subsection}{\numberline {11.8}Why are download times when it comes to apps so important?}{16}{subsection.11.8}}
\@writefile{toc}{\contentsline {subsection}{\numberline {11.9}Why should we focus on scrolling when it comes to apps?}{16}{subsection.11.9}}
\@writefile{toc}{\contentsline {subsection}{\numberline {11.10}What problem are often related to zooming?}{16}{subsection.11.10}}
\@writefile{toc}{\contentsline {subsection}{\numberline {11.11}Mention some do’s in mobile design and testing}{16}{subsection.11.11}}
\@writefile{toc}{\contentsline {subsection}{\numberline {11.12}Mention some donts in mobile design and testing}{16}{subsection.11.12}}
\@writefile{toc}{\contentsline {subsection}{\numberline {11.13}How to make mobile optimized apps and sites}{16}{subsection.11.13}}
\@writefile{toc}{\contentsline {section}{\numberline {12}Intellectual Propery and Licensicng}{16}{section.12}}
\@writefile{toc}{\contentsline {subsection}{\numberline {12.1}What does IP stand for in testing contexts?}{16}{subsection.12.1}}
\@writefile{toc}{\contentsline {subsection}{\numberline {12.2}What are the categories of IP?}{16}{subsection.12.2}}
\@writefile{toc}{\contentsline {subsection}{\numberline {12.3}What are tangible and intangible properies?}{16}{subsection.12.3}}
\@writefile{toc}{\contentsline {subsection}{\numberline {12.4}Why give IP protection, and what can be done with it?}{16}{subsection.12.4}}
\@writefile{toc}{\contentsline {subsection}{\numberline {12.5}What are trade secrets?}{16}{subsection.12.5}}
\@writefile{toc}{\contentsline {subsection}{\numberline {12.6}What are trademarks?}{16}{subsection.12.6}}
\@writefile{toc}{\contentsline {subsection}{\numberline {12.7}What are patents?}{16}{subsection.12.7}}
\@writefile{toc}{\contentsline {subsection}{\numberline {12.8}What are industrial design?}{16}{subsection.12.8}}
\@writefile{toc}{\contentsline {subsection}{\numberline {12.9}What are geopgrahical indications?}{16}{subsection.12.9}}
\@writefile{toc}{\contentsline {subsection}{\numberline {12.10}What is confidential information?}{16}{subsection.12.10}}
\@writefile{toc}{\contentsline {subsection}{\numberline {12.11}What is copy right?}{16}{subsection.12.11}}
\@writefile{toc}{\contentsline {subsection}{\numberline {12.12}What are public domains?}{17}{subsection.12.12}}
\@writefile{toc}{\contentsline {subsection}{\numberline {12.13}What is fair use?}{17}{subsection.12.13}}
\@writefile{toc}{\contentsline {subsection}{\numberline {12.14}What is misuse of sources?}{17}{subsection.12.14}}
\@writefile{toc}{\contentsline {subsection}{\numberline {12.15}What is a license, and why do we need them?}{17}{subsection.12.15}}
\@writefile{toc}{\contentsline {subsection}{\numberline {12.16}What’s the relation between IP and licenses?}{17}{subsection.12.16}}
\@writefile{toc}{\contentsline {subsection}{\numberline {12.17}What does a license give you the right for?}{17}{subsection.12.17}}
\@writefile{toc}{\contentsline {subsection}{\numberline {12.18}What types of licenses do we have?}{17}{subsection.12.18}}
\@writefile{toc}{\contentsline {subsection}{\numberline {12.19}Give some reasons on why to license and rent license}{17}{subsection.12.19}}
\@writefile{toc}{\contentsline {subsection}{\numberline {12.20}What do we need to test regarding licenses?}{17}{subsection.12.20}}
